// Jest Snapshot v1, https://goo.gl/fbAQLP

exports[`should correctly serialise tests with different types of results 1`] = `"<testsuites tests=\\"3\\" errors=\\"0\\" failures=\\"1\\" skipped=\\"1\\" name=\\"Gemini test result\\"><testsuite tests=\\"1\\" errors=\\"0\\" failures=\\"0\\" skipped=\\"0\\" name=\\"Successful test\\" timestamp=\\"1989-11-03T00:00:00.000Z\\"><testcase><name>first-browser</name></testcase></testsuite><testsuite tests=\\"1\\" errors=\\"0\\" failures=\\"1\\" skipped=\\"0\\" name=\\"Failed test\\" timestamp=\\"1989-11-03T00:00:00.000Z\\"><testcase><name>second-browser</name><error>Screenshot was not equal to the reference image</error></testcase></testsuite><testsuite tests=\\"1\\" errors=\\"0\\" failures=\\"0\\" skipped=\\"1\\" name=\\"Skipped test\\" timestamp=\\"1989-11-03T00:00:00.000Z\\"><testcase><name>arbitrary-browser</name><skipped></skipped></testcase></testsuite></testsuites>"`;

exports[`should correctly serialise tests without results 1`] = `"<testsuites tests=\\"0\\" errors=\\"0\\" failures=\\"0\\" skipped=\\"0\\" name=\\"Gemini test result\\"></testsuites>"`;
